R_Dplyr_minicourse
…
遞增排序，以及遞減排序

1.預設是由低到高

flights %>% arrange(dep_delay)

## # A tibble: 336,776 x 19
##     year month   day dep_time sched_dep_time dep_delay
##    <int> <int> <int>    <int>          <int>     <dbl>
##  1  2013    12     7     2040           2123       -43
##  2  2013     2     3     2022           2055       -33
##  3  2013    11    10     1408           1440       -32
##  4  2013     1    11     1900           1930       -30
##  5  2013     1    29     1703           1730       -27
##  6  2013     8     9      729            755       -26
##  7  2013    10    23     1907           1932       -25
##  8  2013     3    30     2030           2055       -25
##  9  2013     3     2     1431           1455       -24
## 10  2013     5     5      934            958       -24
## # ... with 336,766 more rows, and 13 more variables:
## #   arr_time <int>, sched_arr_time <int>,
## #   arr_delay <dbl>, carrier <chr>, flight <int>,
## #   tailnum <chr>, origin <chr>, dest <chr>,
## #   air_time <dbl>, distance <dbl>, hour <dbl>,
## #   minute <dbl>, time_hour <dttm>

加入desc()， descending order是遞減，由高到低

flights %>% arrange(desc(dep_delay))

## # A tibble: 336,776 x 19
##     year month   day dep_time sched_dep_time dep_delay
##    <int> <int> <int>    <int>          <int>     <dbl>
##  1  2013     1     9      641            900      1301
##  2  2013     6    15     1432           1935      1137
##  3  2013     1    10     1121           1635      1126
##  4  2013     9    20     1139           1845      1014
##  5  2013     7    22      845           1600      1005
##  6  2013     4    10     1100           1900       960
##  7  2013     3    17     2321            810       911
##  8  2013     6    27      959           1900       899
##  9  2013     7    22     2257            759       898
## 10  2013    12     5      756           1700       896
## # ... with 336,766 more rows, and 13 more variables:
## #   arr_time <int>, sched_arr_time <int>,
## #   arr_delay <dbl>, carrier <chr>, flight <int>,
## #   tailnum <chr>, origin <chr>, dest <chr>,
## #   air_time <dbl>, distance <dbl>, hour <dbl>,
## #   minute <dbl>, time_hour <dttm>
…
