R_Dplyr_minicourse
…
可以設定多個分組依據

# 我想要知道個別`航空公司(carrier) `，哪些`航班路線(Flight number)`起飛通常比較容易遇到延遲？

flights %>% group_by(carrier, flight) %>% 

            summarise_at(vars(dep_delay), funs(mean), na.rm = T) %>% 

            arrange(desc(dep_delay)) %>% rename(dep_delay_mean = dep_delay)

## # A tibble: 5,725 x 3
## # Groups:   carrier [16]
##    carrier flight dep_delay_mean
##    <chr>    <int>          <dbl>
##  1 WN         521            346
##  2 DL         390            334
##  3 DL         809            298
##  4 UA        1510            278
##  5 EV        5478            242
##  6 EV        5117            219
##  7 9E        3760            217
##  8 EV        5855            209
##  9 WN        1019            203
## 10 WN         217            195
## # ... with 5,715 more rows

我想要知道1~12月份，「每個月份」的「各個日期」，航班「平均起飛延遲」嚴重程度比較？（group_by + arrange組合技）

#意思就是，群內（或者說組內）排序怎麼做？

#請查詢 Help，重點是arrange函數裡面的 .by_group 參數

flights %>% group_by(month, day) %>% 

            summarise_at(vars(dep_delay), funs(mean), na.rm = T) %>% 

            arrange(desc(dep_delay), .by_group = T)

## # A tibble: 365 x 3
## # Groups:   month [12]
##    month   day dep_delay
##    <int> <int>     <dbl>
##  1     1    31      28.7
##  2     1    30      28.6
##  3     1    16      24.6
##  4     1    25      21.9
##  5     1    13      19.9
##  6     1    24      19.5
##  7     1    28      15.1
##  8     1     2      13.9
##  9     1    22      12.5
## 10     1     1      11.5
## # ... with 355 more rows
…
