R_Dplyr_minicourse
…
和summary functions不同的是 : vectorized function，得到的還是一個vector(column vector)

mutate從既有變數中新增變數，有保留原始data.frame。

flights %>% mutate(total_delay = dep_delay + arr_delay)

## # A tibble: 336,776 x 20
##     year month   day dep_time sched_dep_time dep_delay
##    <int> <int> <int>    <int>          <int>     <dbl>
##  1  2013     1     1      517            515      2.00
##  2  2013     1     1      533            529      4.00
##  3  2013     1     1      542            540      2.00
##  4  2013     1     1      544            545     -1.00
##  5  2013     1     1      554            600     -6.00
##  6  2013     1     1      554            558     -4.00
##  7  2013     1     1      555            600     -5.00
##  8  2013     1     1      557            600     -3.00
##  9  2013     1     1      557            600     -3.00
## 10  2013     1     1      558            600     -2.00
## # ... with 336,766 more rows, and 14 more variables:
## #   arr_time <int>, sched_arr_time <int>,
## #   arr_delay <dbl>, carrier <chr>, flight <int>,
## #   tailnum <chr>, origin <chr>, dest <chr>,
## #   air_time <dbl>, distance <dbl>, hour <dbl>,
## #   minute <dbl>, time_hour <dttm>, total_delay <dbl>

transmute從既有變數中新增變數，無保留原始data.frame。

flights %>% transmute(total_delay = dep_delay + arr_delay)

## # A tibble: 336,776 x 1
##    total_delay
##          <dbl>
##  1       13.0 
##  2       24.0 
##  3       35.0 
##  4      -19.0 
##  5      -31.0 
##  6        8.00
##  7       14.0 
##  8      -17.0 
##  9      -11.0 
## 10        6.00
## # ... with 336,766 more rows
…
